^C:\USERS\YANA\DESKTOP\BIASSMEMORY\BIASSMEMORY\PCH.CPP
/c /Zi /nologo /W3 /WX- /diagnostics:classic /sdl /O2 /Oi /Oy- /GL /D WIN32 /D NDEBUG /D _CONSOLE /D _UNICODE /D UNICODE /Gm- /EHsc /MD /GS /Gy /fp:precise /permissive- /Zc:wchar_t /Zc:forScope /Zc:inline /Yc"pch.h" /Fp"RELEASE\BIASSMEMORY.PCH" /Fo"RELEASE\\" /Fd"RELEASE\VC141.PDB" /Gd /TP /analyze- /FC C:\USERS\YANA\DESKTOP\BIASSMEMORY\BIASSMEMORY\PCH.CPP
^C:\USERS\YANA\DESKTOP\BIASSMEMORY\BIASSMEMORY\BIASSMEMORY.CPP
/c /Zi /nologo /W3 /WX- /diagnostics:classic /sdl /O2 /Oi /Oy- /GL /D WIN32 /D NDEBUG /D _CONSOLE /D _UNICODE /D UNICODE /Gm- /EHsc /MD /GS /Gy /fp:precise /permissive- /Zc:wchar_t /Zc:forScope /Zc:inline /Yu"pch.h" /Fp"RELEASE\BIASSMEMORY.PCH" /Fo"RELEASE\\" /Fd"RELEASE\VC141.PDB" /Gd /TP /analyze- /FC C:\USERS\YANA\DESKTOP\BIASSMEMORY\BIASSMEMORY\BIASSMEMORY.CPP
^C:\USERS\YANA\DESKTOP\BIASSMEMORY\BIASSMEMORY\MATRIX.CPP
/c /Zi /nologo /W3 /WX- /diagnostics:classic /sdl /O2 /Oi /Oy- /GL /D WIN32 /D NDEBUG /D _CONSOLE /D _UNICODE /D UNICODE /Gm- /EHsc /MD /GS /Gy /fp:precise /permissive- /Zc:wchar_t /Zc:forScope /Zc:inline /Yu"pch.h" /Fp"RELEASE\BIASSMEMORY.PCH" /Fo"RELEASE\\" /Fd"RELEASE\VC141.PDB" /Gd /TP /analyze- /FC C:\USERS\YANA\DESKTOP\BIASSMEMORY\BIASSMEMORY\MATRIX.CPP
^C:\USERS\YANA\DESKTOP\BIASSMEMORY\BIASSMEMORY\BIASSOCIATIVEMEMORY.CPP
/c /Zi /nologo /W3 /WX- /diagnostics:classic /sdl /O2 /Oi /Oy- /GL /D WIN32 /D NDEBUG /D _CONSOLE /D _UNICODE /D UNICODE /Gm- /EHsc /MD /GS /Gy /fp:precise /permissive- /Zc:wchar_t /Zc:forScope /Zc:inline /Yu"pch.h" /Fp"RELEASE\BIASSMEMORY.PCH" /Fo"RELEASE\\" /Fd"RELEASE\VC141.PDB" /Gd /TP /analyze- /FC C:\USERS\YANA\DESKTOP\BIASSMEMORY\BIASSMEMORY\BIASSOCIATIVEMEMORY.CPP
